%YAML 1.1
%TAG !u! tag:unity3d.com,2011:
--- !u!65 &7040811983389748173
BoxCollider:
  m_ObjectHideFlags: 0
  m_CorrespondingSourceObject: {fileID: 0}
  m_PrefabInstance: {fileID: 0}
  m_PrefabAsset: {fileID: 0}
  m_GameObject: {fileID: 8789170963430682648}
  m_Material: {fileID: 0}
  m_IsTrigger: 0
  m_Enabled: 1
  serializedVersion: 2
  m_Size: {x: 1.4999999, y: 6.9999995, z: 1.4999999}
  m_Center: {x: 0.00000008940696, y: 3.4999998, z: -0.00083282584}
--- !u!1001 &781521298533247249
PrefabInstance:
  m_ObjectHideFlags: 0
  serializedVersion: 2
  m_Modification:
    m_TransformParent: {fileID: 0}
    m_Modifications:
    - target: {fileID: -927199367670048503, guid: 32101ae39e173fa4bba636140b764756,
        type: 3}
      propertyPath: m_Name
      value: Floor_Pillar
      objectReference: {fileID: 0}
    - target: {fileID: -927199367670048503, guid: 32101ae39e173fa4bba636140b764756,
        type: 3}
      propertyPath: m_Layer
      value: 16
      objectReference: {fileID: 0}
    - target: {fileID: -927199367670048503, guid: 32101ae39e173fa4bba636140b764756,
        type: 3}
      propertyPath: m_StaticEditorFlags
      value: 4294967295
      objectReference: {fileID: 0}
    - target: {fileID: -4216859302048453862, guid: 32101ae39e173fa4bba636140b764756,
        type: 3}
      propertyPath: m_LocalPosition.x
      value: 60.25586
      objectReference: {fileID: 0}
    - target: {fileID: -4216859302048453862, guid: 32101ae39e173fa4bba636140b764756,
        type: 3}
      propertyPath: m_LocalPosition.y
      value: 31.5
      objectReference: {fileID: 0}
    - target: {fileID: -4216859302048453862, guid: 32101ae39e173fa4bba636140b764756,
        type: 3}
      propertyPath: m_LocalPosition.z
      value: 289.25
      objectReference: {fileID: 0}
    - target: {fileID: -4216859302048453862, guid: 32101ae39e173fa4bba636140b764756,
        type: 3}
      propertyPath: m_LocalRotation.x
      value: 0
      objectReference: {fileID: 0}
    - target: {fileID: -4216859302048453862, guid: 32101ae39e173fa4bba636140b764756,
        type: 3}
      propertyPath: m_LocalRotation.y
      value: -0
      objectReference: {fileID: 0}
    - target: {fileID: -4216859302048453862, guid: 32101ae39e173fa4bba636140b764756,
        type: 3}
      propertyPath: m_LocalRotation.z
      value: -0
      objectReference: {fileID: 0}
    - target: {fileID: -4216859302048453862, guid: 32101ae39e173fa4bba636140b764756,
        type: 3}
      propertyPath: m_LocalRotation.w
      value: 1
      objectReference: {fileID: 0}
    - target: {fileID: -4216859302048453862, guid: 32101ae39e173fa4bba636140b764756,
        type: 3}
      propertyPath: m_RootOrder
      value: 0
      objectReference: {fileID: 0}
    - target: {fileID: -4216859302048453862, guid: 32101ae39e173fa4bba636140b764756,
        type: 3}
      propertyPath: m_LocalEulerAnglesHint.x
      value: 0
      objectReference: {fileID: 0}
    - target: {fileID: -4216859302048453862, guid: 32101ae39e173fa4bba636140b764756,
        type: 3}
      propertyPath: m_LocalEulerAnglesHint.y
      value: 0
      objectReference: {fileID: 0}
    - target: {fileID: -4216859302048453862, guid: 32101ae39e173fa4bba636140b764756,
        type: 3}
      propertyPath: m_LocalEulerAnglesHint.z
      value: 0
      objectReference: {fileID: 0}
    - target: {fileID: -4216859302048453862, guid: 32101ae39e173fa4bba636140b764756,
        type: 3}
      propertyPath: m_LocalScale.x
      value: 1.75
      objectReference: {fileID: 0}
    - target: {fileID: -4216859302048453862, guid: 32101ae39e173fa4bba636140b764756,
        type: 3}
      propertyPath: m_LocalScale.y
      value: 1.75
      objectReference: {fileID: 0}
    - target: {fileID: -4216859302048453862, guid: 32101ae39e173fa4bba636140b764756,
        type: 3}
      propertyPath: m_LocalScale.z
      value: 1.75
      objectReference: {fileID: 0}
    - target: {fileID: -1504981713932161579, guid: 32101ae39e173fa4bba636140b764756,
        type: 3}
      propertyPath: m_Materials.Array.data[0]
      value: 
      objectReference: {fileID: 2100000, guid: f1317d4be5385364ba46523b11c58875, type: 2}
    - target: {fileID: -1504981713932161579, guid: 32101ae39e173fa4bba636140b764756,
        type: 3}
      propertyPath: m_CastShadows
      value: 2
      objectReference: {fileID: 0}
    m_RemovedComponents: []
  m_SourcePrefab: {fileID: 100100000, guid: 32101ae39e173fa4bba636140b764756, type: 3}
--- !u!1 &8789170963430682648 stripped
GameObject:
  m_CorrespondingSourceObject: {fileID: -927199367670048503, guid: 32101ae39e173fa4bba636140b764756,
    type: 3}
  m_PrefabInstance: {fileID: 781521298533247249}
  m_PrefabAsset: {fileID: 0}
